{
  "ServerUrl": "http://127.0.0.1:8080",
  "Setup.Mode": "Unsecured",
  "DataDir": "RavenData",
  "License.Eula.Accepted": true,
  "Security.UnsecuredAccessAllowed": "PublicNetwork",
  "ServerUrl.Tcp": "tcp://127.0.0.1:38888"
}